{
  "shell_port": 55031,
  "iopub_port": 60411,
  "stdin_port": 39993,
  "control_port": 34785,
  "hb_port": 46353,
  "ip": "127.0.0.1",
  "key": "1cf6e4da-d75407daa4e934d780205035",
  "transport": "tcp",
  "signature_scheme": "hmac-sha256",
  "kernel_name": ""
}